<?xml version="1.0" encoding="UTF-8" standalone="no"?>
<svg
   xmlns:dc="http://purl.org/dc/elements/1.1/"
   xmlns:cc="http://creativecommons.org/ns#"
   xmlns:rdf="http://www.w3.org/1999/02/22-rdf-syntax-ns#"
   xmlns:svg="http://www.w3.org/2000/svg"
   xmlns="http://www.w3.org/2000/svg"
   xmlns:sodipodi="http://sodipodi.sourceforge.net/DTD/sodipodi-0.dtd"
   xmlns:inkscape="http://www.inkscape.org/namespaces/inkscape"
   fill="#000000"
   height="24"
   viewBox="0 0 24 24"
   width="24"
   version="1.1"
   id="svg6475"
   sodipodi:docname="mode_select.bw.svg"
   inkscape:version="0.92.2 5c3e80d, 2017-08-06">
  <metadata
     id="metadata6481">
    <rdf:RDF>
      <cc:Work
         rdf:about="">
        <dc:format>image/svg+xml</dc:format>
        <dc:type
           rdf:resource="http://purl.org/dc/dcmitype/StillImage" />
        <dc:title />
      </cc:Work>
    </rdf:RDF>
  </metadata>
  <defs
     id="defs6479" />
  <sodipodi:namedview
     pagecolor="#ffffff"
     bordercolor="#666666"
     borderopacity="1"
     objecttolerance="10"
     gridtolerance="10"
     guidetolerance="10"
     inkscape:pageopacity="0"
     inkscape:pageshadow="2"
     inkscape:window-width="1440"
     inkscape:window-height="855"
     id="namedview6477"
     showgrid="false"
     inkscape:zoom="19.666667"
     inkscape:cx="7.0677962"
     inkscape:cy="12"
     inkscape:window-x="0"
     inkscape:window-y="1"
     inkscape:window-maximized="1"
     inkscape:current-layer="svg6475" />
  <path
     d="M0 0h24v24H0z"
     fill="none"
     id="path6473" />
  <path
     style="fill:#d9d9d9;fill-opacity:1;stroke:none;stroke-width:1.3341732;stroke-miterlimit:4;stroke-dasharray:2.66834641, 1.33417319999999995;stroke-dashoffset:0;stroke-opacity:1"
     d="M 7.9238281 2.640625 L 7.9550781 17.775391 L 11.162109 15.689453 L 13.552734 20.947266 L 15.773438 19.9375 L 13.417969 14.755859 L 17.615234 14.265625 L 7.9238281 2.640625 z "
     id="rect3064" />
</svg>
